user.dguest.301261.hbbTraining.e3743_s3126_r9364_p3652.cssksd.v1_output.h5/
user.dguest.361021.hbbTraining.e3569_s3126_r9364_p3652.cssksd.v1_output.h5/
user.dguest.301333.hbbTraining.e3723_s3126_r9364_p3652.ak10lc.v1_output.h5/
user.dguest.361025.hbbTraining.e3668_s3126_r9364_p3652.ak10lc.v1_output.h5/
user.dguest.301281.hbbTraining.e3743_s3126_r9364_p3652.cssksd.v1_output.h5/
user.dguest.301287.hbbTraining.e3743_s3126_r9364_p3652.cssksd.v1_output.h5/
user.dguest.301282.hbbTraining.e3743_s3126_r9364_p3652.cssksd.v1_output.h5/
user.dguest.309450.hbbTraining.e6281_s3126_r9364_p3652.cssksd.v1_output.h5/
user.dguest.301322.hbbTraining.e4061_s3126_r9364_p3652.cssksd.v1_output.h5/
user.dguest.301280.hbbTraining.e3743_s3126_r9364_p3652.cssksd.v1_output.h5/
user.dguest.301286.hbbTraining.e3743_s3126_r9364_p3652.cssksd.v1_output.h5/
user.dguest.301331.hbbTraining.e4061_s3126_r9364_p3652.cssksd.v1_output.h5/
user.dguest.301277.hbbTraining.e3743_s3126_r9364_p3652.cssksd.v1_output.h5/
user.dguest.301284.hbbTraining.e3743_s3126_r9364_p3652.cssksd.v1_output.h5/
user.dguest.301335.hbbTraining.e3723_s3126_r9364_p3652.cssksd.v1_output.h5/
user.dguest.301326.hbbTraining.e4061_s3126_r9364_p3652.cssksd.v1_output.h5/
user.dguest.301328.hbbTraining.e4061_s3126_r9364_p3652.cssksd.v1_output.h5/
user.dguest.301274.hbbTraining.e3743_s3126_r9364_p3652.cssksd.v1_output.h5/
user.dguest.301325.hbbTraining.e4061_s3126_r9364_p3652.cssksd.v1_output.h5/
user.dguest.301332.hbbTraining.e4061_s3126_r9364_p3652.cssksd.v1_output.h5/
user.dguest.301260.hbbTraining.e3743_s3126_r9364_p3652.cssksd.v1_output.h5/
user.dguest.301273.hbbTraining.e3743_s3126_r9364_p3652.cssksd.v1_output.h5/
user.dguest.301276.hbbTraining.e3743_s3126_r9364_p3652.cssksd.v1_output.h5/
user.dguest.301283.hbbTraining.e3743_s3126_r9364_p3652.cssksd.v1_output.h5/
user.dguest.301257.hbbTraining.e3749_s3126_r9364_p3652.cssksd.v1_output.h5/
user.dguest.301275.hbbTraining.e3743_s3126_r9364_p3652.cssksd.v1_output.h5/
user.dguest.301285.hbbTraining.e3743_s3126_r9364_p3652.cssksd.v1_output.h5/
user.dguest.301329.hbbTraining.e4061_s3126_r9364_p3652.cssksd.v1_output.h5/
user.dguest.301279.hbbTraining.e3743_s3126_r9364_p3652.cssksd.v1_output.h5/
user.dguest.301270.hbbTraining.e3743_s3126_r9364_p3652.cssksd.v1_output.h5/
user.dguest.301272.hbbTraining.e3743_s3126_r9364_p3652.cssksd.v1_output.h5/
user.dguest.301262.hbbTraining.e3743_s3126_r9364_p3652.cssksd.v1_output.h5/
user.dguest.301254.hbbTraining.e3749_s3126_r9364_p3652.cssksd.v1_output.h5/
user.dguest.301258.hbbTraining.e3743_s3126_r9364_p3652.cssksd.v1_output.h5/
user.dguest.301268.hbbTraining.e3743_s3126_r9364_p3652.cssksd.v1_output.h5/
user.dguest.301264.hbbTraining.e3743_s3126_r9364_p3652.cssksd.v1_output.h5/
user.dguest.301327.hbbTraining.e4061_s3126_r9364_p3652.cssksd.v1_output.h5/
user.dguest.301271.hbbTraining.e3743_s3126_r9364_p3652.cssksd.v1_output.h5/
user.dguest.301506.hbbTraining.e3820_s3126_r9364_p3652.cssksd.v1_output.h5/
user.dguest.301263.hbbTraining.e3743_s3126_r9364_p3652.cssksd.v1_output.h5/
user.dguest.301334.hbbTraining.e3723_s3126_r9364_p3652.cssksd.v1_output.h5/
user.dguest.301333.hbbTraining.e3723_s3126_r9364_p3652.cssksd.v1_output.h5/
user.dguest.301505.hbbTraining.e3820_s3126_r9364_p3652.cssksd.v1_output.h5/
user.dguest.301324.hbbTraining.e4061_s3126_r9364_p3652.cssksd.v1_output.h5/
user.dguest.301266.hbbTraining.e3743_s3126_r9364_p3652.cssksd.v1_output.h5/
user.dguest.301265.hbbTraining.e3743_s3126_r9364_p3652.cssksd.v1_output.h5/
user.dguest.301494.hbbTraining.e3820_s3126_r9364_p3652.cssksd.v1_output.h5/
user.dguest.301330.hbbTraining.e4061_s3126_r9364_p3652.cssksd.v1_output.h5/
user.dguest.301269.hbbTraining.e3743_s3126_r9364_p3652.cssksd.v1_output.h5/
user.dguest.301503.hbbTraining.e3820_s3126_r9364_p3652.cssksd.v1_output.h5/
user.dguest.301259.hbbTraining.e3743_s3126_r9364_p3652.cssksd.v1_output.h5/
user.dguest.301267.hbbTraining.e3749_s3126_r9364_p3652.cssksd.v1_output.h5/
user.dguest.301501.hbbTraining.e3820_s3126_r9364_p3652.cssksd.v1_output.h5/
user.dguest.301500.hbbTraining.e3820_s3126_r9364_p3652.cssksd.v1_output.h5/
user.dguest.301323.hbbTraining.e4061_s3126_r9364_p3652.cssksd.v1_output.h5/
user.dguest.301499.hbbTraining.e3820_s3126_r9364_p3652.cssksd.v1_output.h5/
user.dguest.301504.hbbTraining.e3820_s3126_r9364_p3652.cssksd.v1_output.h5/
user.dguest.301507.hbbTraining.e3820_s3126_r9364_p3652.cssksd.v1_output.h5/
user.dguest.301256.hbbTraining.e3743_s3126_r9364_p3652.cssksd.v1_output.h5/
user.dguest.301255.hbbTraining.e3749_s3126_r9364_p3652.cssksd.v1_output.h5/
user.dguest.301278.hbbTraining.e3743_s3126_r9364_p3652.cssksd.v1_output.h5/
user.dguest.301495.hbbTraining.e3820_s3126_r9364_p3652.cssksd.v1_output.h5/
user.dguest.301488.hbbTraining.e3820_s3126_r9364_p3652.cssksd.v1_output.h5/
user.dguest.301496.hbbTraining.e3820_s3126_r9364_p3652.cssksd.v1_output.h5/
user.dguest.301492.hbbTraining.e3820_s3126_r9364_p3652.cssksd.v1_output.h5/
user.dguest.301498.hbbTraining.e3820_s3126_r9364_p3652.cssksd.v1_output.h5/
user.dguest.301497.hbbTraining.e3820_s3126_r9364_p3652.cssksd.v1_output.h5/
user.dguest.301493.hbbTraining.e3820_s3126_r9364_p3652.cssksd.v1_output.h5/
user.dguest.361025.hbbTraining.e3668_s3126_r9364_p3652.cssksd.v1_output.h5/
user.dguest.361026.hbbTraining.e3569_s3126_r9364_p3652.cssksd.v1_output.h5/
user.dguest.301489.hbbTraining.e3820_s3126_r9364_p3652.cssksd.v1_output.h5/
user.dguest.301502.hbbTraining.e3820_s3126_r9364_p3652.cssksd.v1_output.h5/
user.dguest.301490.hbbTraining.e3820_s3126_r9364_p3652.cssksd.v1_output.h5/
user.dguest.301491.hbbTraining.e3820_s3126_r9364_p3652.cssksd.v1_output.h5/
user.dguest.361030.hbbTraining.e3569_s3126_r9364_p3652.cssksd.v1_output.h5/
user.dguest.361028.hbbTraining.e3569_s3126_r9364_p3652.cssksd.v1_output.h5/
user.dguest.361032.hbbTraining.e3668_s3126_r9364_p3652.cssksd.v1_output.h5/
user.dguest.361031.hbbTraining.e3569_s3126_r9364_p3652.cssksd.v1_output.h5/
user.dguest.361024.hbbTraining.e3668_s3126_r9364_p3652.cssksd.v1_output.h5/
user.dguest.361027.hbbTraining.e3668_s3126_r9364_p3652.cssksd.v1_output.h5/
user.dguest.361029.hbbTraining.e3569_s3126_r9364_p3652.cssksd.v1_output.h5/
user.dguest.361023.hbbTraining.e3668_s3126_r9364_p3652.cssksd.v1_output.h5/
user.dguest.361020.hbbTraining.e3569_s3126_r9364_p3652.cssksd.v1_output.h5/
user.dguest.361022.hbbTraining.e3668_s3126_r9364_p3652.cssksd.v1_output.h5/
user.dguest.301283.hbbTraining.e3743_s3126_r9364_p3652.ak10lc.v1_output.h5/
user.dguest.301278.hbbTraining.e3743_s3126_r9364_p3652.ak10lc.v1_output.h5/
user.dguest.301287.hbbTraining.e3743_s3126_r9364_p3652.ak10lc.v1_output.h5/
user.dguest.301280.hbbTraining.e3743_s3126_r9364_p3652.ak10lc.v1_output.h5/
user.dguest.309450.hbbTraining.e6281_s3126_r9364_p3652.ak10lc.v1_output.h5/
user.dguest.301277.hbbTraining.e3743_s3126_r9364_p3652.ak10lc.v1_output.h5/
user.dguest.301260.hbbTraining.e3743_s3126_r9364_p3652.ak10lc.v1_output.h5/
user.dguest.301286.hbbTraining.e3743_s3126_r9364_p3652.ak10lc.v1_output.h5/
user.dguest.301275.hbbTraining.e3743_s3126_r9364_p3652.ak10lc.v1_output.h5/
user.dguest.301279.hbbTraining.e3743_s3126_r9364_p3652.ak10lc.v1_output.h5/
user.dguest.301273.hbbTraining.e3743_s3126_r9364_p3652.ak10lc.v1_output.h5/
user.dguest.301265.hbbTraining.e3743_s3126_r9364_p3652.ak10lc.v1_output.h5/
user.dguest.301276.hbbTraining.e3743_s3126_r9364_p3652.ak10lc.v1_output.h5/
user.dguest.301282.hbbTraining.e3743_s3126_r9364_p3652.ak10lc.v1_output.h5/
user.dguest.301259.hbbTraining.e3743_s3126_r9364_p3652.ak10lc.v1_output.h5/
user.dguest.301270.hbbTraining.e3743_s3126_r9364_p3652.ak10lc.v1_output.h5/
user.dguest.301274.hbbTraining.e3743_s3126_r9364_p3652.ak10lc.v1_output.h5/
user.dguest.301272.hbbTraining.e3743_s3126_r9364_p3652.ak10lc.v1_output.h5/
user.dguest.301271.hbbTraining.e3743_s3126_r9364_p3652.ak10lc.v1_output.h5/
user.dguest.301330.hbbTraining.e4061_s3126_r9364_p3652.ak10lc.v1_output.h5/
user.dguest.301267.hbbTraining.e3749_s3126_r9364_p3652.ak10lc.v1_output.h5/
user.dguest.301334.hbbTraining.e3723_s3126_r9364_p3652.ak10lc.v1_output.h5/
user.dguest.301326.hbbTraining.e4061_s3126_r9364_p3652.ak10lc.v1_output.h5/
user.dguest.301266.hbbTraining.e3743_s3126_r9364_p3652.ak10lc.v1_output.h5/
user.dguest.301284.hbbTraining.e3743_s3126_r9364_p3652.ak10lc.v1_output.h5/
user.dguest.301329.hbbTraining.e4061_s3126_r9364_p3652.ak10lc.v1_output.h5/
user.dguest.301281.hbbTraining.e3743_s3126_r9364_p3652.ak10lc.v1_output.h5/
user.dguest.301264.hbbTraining.e3743_s3126_r9364_p3652.ak10lc.v1_output.h5/
user.dguest.301257.hbbTraining.e3749_s3126_r9364_p3652.ak10lc.v1_output.h5/
user.dguest.301328.hbbTraining.e4061_s3126_r9364_p3652.ak10lc.v1_output.h5/
user.dguest.301323.hbbTraining.e4061_s3126_r9364_p3652.ak10lc.v1_output.h5/
user.dguest.301269.hbbTraining.e3743_s3126_r9364_p3652.ak10lc.v1_output.h5/
user.dguest.301268.hbbTraining.e3743_s3126_r9364_p3652.ak10lc.v1_output.h5/
user.dguest.301258.hbbTraining.e3743_s3126_r9364_p3652.ak10lc.v1_output.h5/
user.dguest.301262.hbbTraining.e3743_s3126_r9364_p3652.ak10lc.v1_output.h5/
user.dguest.301285.hbbTraining.e3743_s3126_r9364_p3652.ak10lc.v1_output.h5/
user.dguest.301263.hbbTraining.e3743_s3126_r9364_p3652.ak10lc.v1_output.h5/
user.dguest.301255.hbbTraining.e3749_s3126_r9364_p3652.ak10lc.v1_output.h5/
user.dguest.301506.hbbTraining.e3820_s3126_r9364_p3652.ak10lc.v1_output.h5/
user.dguest.301331.hbbTraining.e4061_s3126_r9364_p3652.ak10lc.v1_output.h5/
user.dguest.301504.hbbTraining.e3820_s3126_r9364_p3652.ak10lc.v1_output.h5/
user.dguest.301254.hbbTraining.e3749_s3126_r9364_p3652.ak10lc.v1_output.h5/
user.dguest.301335.hbbTraining.e3723_s3126_r9364_p3652.ak10lc.v1_output.h5/
user.dguest.301332.hbbTraining.e4061_s3126_r9364_p3652.ak10lc.v1_output.h5/
user.dguest.301324.hbbTraining.e4061_s3126_r9364_p3652.ak10lc.v1_output.h5/
user.dguest.301322.hbbTraining.e4061_s3126_r9364_p3652.ak10lc.v1_output.h5/
user.dguest.301261.hbbTraining.e3743_s3126_r9364_p3652.ak10lc.v1_output.h5/
user.dguest.301502.hbbTraining.e3820_s3126_r9364_p3652.ak10lc.v1_output.h5/
user.dguest.301501.hbbTraining.e3820_s3126_r9364_p3652.ak10lc.v1_output.h5/
user.dguest.301499.hbbTraining.e3820_s3126_r9364_p3652.ak10lc.v1_output.h5/
user.dguest.301325.hbbTraining.e4061_s3126_r9364_p3652.ak10lc.v1_output.h5/
user.dguest.301256.hbbTraining.e3743_s3126_r9364_p3652.ak10lc.v1_output.h5/
user.dguest.301500.hbbTraining.e3820_s3126_r9364_p3652.ak10lc.v1_output.h5/
user.dguest.301327.hbbTraining.e4061_s3126_r9364_p3652.ak10lc.v1_output.h5/
user.dguest.301503.hbbTraining.e3820_s3126_r9364_p3652.ak10lc.v1_output.h5/
user.dguest.301496.hbbTraining.e3820_s3126_r9364_p3652.ak10lc.v1_output.h5/
user.dguest.301507.hbbTraining.e3820_s3126_r9364_p3652.ak10lc.v1_output.h5/
user.dguest.301505.hbbTraining.e3820_s3126_r9364_p3652.ak10lc.v1_output.h5/
user.dguest.301495.hbbTraining.e3820_s3126_r9364_p3652.ak10lc.v1_output.h5/
user.dguest.301498.hbbTraining.e3820_s3126_r9364_p3652.ak10lc.v1_output.h5/
user.dguest.301493.hbbTraining.e3820_s3126_r9364_p3652.ak10lc.v1_output.h5/
user.dguest.301491.hbbTraining.e3820_s3126_r9364_p3652.ak10lc.v1_output.h5/
user.dguest.361032.hbbTraining.e3668_s3126_r9364_p3652.ak10lc.v1_output.h5/
user.dguest.301490.hbbTraining.e3820_s3126_r9364_p3652.ak10lc.v1_output.h5/
user.dguest.361030.hbbTraining.e3569_s3126_r9364_p3652.ak10lc.v1_output.h5/
user.dguest.301494.hbbTraining.e3820_s3126_r9364_p3652.ak10lc.v1_output.h5/
user.dguest.301497.hbbTraining.e3820_s3126_r9364_p3652.ak10lc.v1_output.h5/
user.dguest.301489.hbbTraining.e3820_s3126_r9364_p3652.ak10lc.v1_output.h5/
user.dguest.301492.hbbTraining.e3820_s3126_r9364_p3652.ak10lc.v1_output.h5/
user.dguest.361029.hbbTraining.e3569_s3126_r9364_p3652.ak10lc.v1_output.h5/
user.dguest.361031.hbbTraining.e3569_s3126_r9364_p3652.ak10lc.v1_output.h5/
user.dguest.301488.hbbTraining.e3820_s3126_r9364_p3652.ak10lc.v1_output.h5/
user.dguest.361027.hbbTraining.e3668_s3126_r9364_p3652.ak10lc.v1_output.h5/
user.dguest.361023.hbbTraining.e3668_s3126_r9364_p3652.ak10lc.v1_output.h5/
user.dguest.361028.hbbTraining.e3569_s3126_r9364_p3652.ak10lc.v1_output.h5/
user.dguest.361024.hbbTraining.e3668_s3126_r9364_p3652.ak10lc.v1_output.h5/
user.dguest.361026.hbbTraining.e3569_s3126_r9364_p3652.ak10lc.v1_output.h5/
user.dguest.361022.hbbTraining.e3668_s3126_r9364_p3652.ak10lc.v1_output.h5/
user.dguest.361020.hbbTraining.e3569_s3126_r9364_p3652.ak10lc.v1_output.h5/
user.dguest.361021.hbbTraining.e3569_s3126_r9364_p3652.ak10lc.v1_output.h5/
