mc16a.zprime1750_tt.301328
mc16a.Wprime_WZqqqq_m2700.301274
mc16a.Wprime_WZqqqq_m2500.301272
mc16d.jetjet_JZ7W.361027
mc16d.jetjet_JZ3W.361023
mc16d.jetjet_JZ9W.361029
mc16d.jetjet_JZ8W.361028
mc16d.jetjet_JZ12W.361032
mc16d.jetjet_JZ10W.361030
mc16d.jetjet_JZ2W.361022
mc16d.jetjet_JZ5W.361025
mc16d.jetjet_JZ6W.361026
mc16d.jetjet_JZ1W.361021
mc16d.RS_G_hh_bbbb_c10_M3000.301507
mc16d.jetjet_JZ11W.361031
mc16d.jetjet_JZ4W.361024
mc16d.RS_G_hh_bbbb_c10_M2500.301505
mc16d.jetjet_JZ0W.361020
mc16d.nnlo_30_ggH125_bb_kt200.309450
mc16d.RS_G_hh_bbbb_c10_M2750.301506
mc16d.RS_G_hh_bbbb_c10_M1800.301502
mc16d.RS_G_hh_bbbb_c10_M1500.301500
mc16d.RS_G_hh_bbbb_c10_M2000.301503
mc16d.RS_G_hh_bbbb_c10_M1400.301499
mc16d.RS_G_hh_bbbb_c10_M1300.301498
mc16d.RS_G_hh_bbbb_c10_M1600.301501
mc16d.RS_G_hh_bbbb_c10_M2250.301504
mc16d.RS_G_hh_bbbb_c10_M1200.301497
mc16d.RS_G_hh_bbbb_c10_M1100.301496
mc16d.RS_G_hh_bbbb_c10_M800.301493
mc16d.RS_G_hh_bbbb_c10_M700.301492
mc16d.RS_G_hh_bbbb_c10_M1000.301495
mc16d.RS_G_hh_bbbb_c10_M300.301488
mc16d.RS_G_hh_bbbb_c10_M500.301490
mc16d.RS_G_hh_bbbb_c10_M900.301494
mc16d.zprime2000_tt.301329
mc16d.zprime5000_tt.301335
mc16d.zprime3000_tt.301333
mc16d.zprime2500_tt.301331
mc16d.RS_G_hh_bbbb_c10_M400.301489
mc16d.zprime2750_tt.301332
mc16d.zprime4000_tt.301334
mc16d.zprime2250_tt.301330
mc16d.RS_G_hh_bbbb_c10_M600.301491
mc16d.zprime1500_tt.301327
mc16d.zprime1000_tt.301325
mc16d.Wprime_WZqqqq_m4600.301285
mc16d.zprime1750_tt.301328
mc16d.Wprime_WZqqqq_m5000.301287
mc16d.zprime500_tt.301323
mc16d.zprime750_tt.301324
mc16d.Wprime_WZqqqq_m5000.301287
mc16d.zprime1250_tt.301326
mc16d.Wprime_WZqqqq_m4400.301284
mc16d.Wprime_WZqqqq_m4600.301285
mc16d.Wprime_WZqqqq_m4200.301283
mc16d.Wprime_WZqqqq_m4000.301282
mc16d.Wprime_WZqqqq_m4000.301282
mc16d.zprime400_tt.301322
mc16d.Wprime_WZqqqq_m3600.301280
mc16d.Wprime_WZqqqq_m3000.301277
mc16d.Wprime_WZqqqq_m4800.301286
mc16d.Wprime_WZqqqq_m3800.301281
mc16d.Wprime_WZqqqq_m2600.301273
mc16d.Wprime_WZqqqq_m3000.301277
mc16d.Wprime_WZqqqq_m3600.301280
mc16d.Wprime_WZqqqq_m2900.301276
mc16d.Wprime_WZqqqq_m2700.301274
mc16d.Wprime_WZqqqq_m3200.301278
mc16d.Wprime_WZqqqq_m3400.301279
mc16d.Wprime_WZqqqq_m2800.301275
mc16d.Wprime_WZqqqq_m2500.301272
mc16d.Wprime_WZqqqq_m2400.301271
mc16d.Wprime_WZqqqq_m2500.301272
mc16d.Wprime_WZqqqq_m1800.301265
mc16d.Wprime_WZqqqq_m2200.301269
mc16d.Wprime_WZqqqq_m2300.301270
mc16d.Wprime_WZqqqq_m1900.301266
mc16d.Wprime_WZqqqq_m2000.301267
mc16d.Wprime_WZqqqq_m1300.301260
mc16d.Wprime_WZqqqq_m1600.301263
mc16d.Wprime_WZqqqq_m1700.301264
mc16d.Wprime_WZqqqq_m2100.301268
mc16d.Wprime_WZqqqq_m1200.301259
mc16d.Wprime_WZqqqq_m1500.301262
mc16d.Wprime_WZqqqq_m1400.301261
mc16d.Wprime_WZqqqq_m600.301255
mc16d.Wprime_WZqqqq_m1100.301258
mc16d.Wprime_WZqqqq_m800.301256
mc16d.Wprime_WZqqqq_m1000.301257
mc16d.Wprime_WZqqqq_m400.301254
mc16a.jetjet_JZ12W.361032
mc16d.Wprime_WZqqqq_m400.301254
mc16a.jetjet_JZ9W.361029
mc16d.Wprime_WZqqqq_m1000.301257
mc16a.jetjet_JZ7W.361027
mc16a.jetjet_JZ2W.361022
mc16a.jetjet_JZ10W.361030
mc16a.jetjet_JZ8W.361028
mc16a.jetjet_JZ11W.361031
mc16a.jetjet_JZ6W.361026
mc16a.jetjet_JZ4W.361024
mc16a.jetjet_JZ5W.361025
mc16a.jetjet_JZ3W.361023
mc16a.jetjet_JZ1W.361021
mc16a.jetjet_JZ0W.361020
mc16a.RS_G_hh_bbbb_c10_M3000.301507
mc16a.RS_G_hh_bbbb_c10_M2500.301505
mc16a.RS_G_hh_bbbb_c10_M2750.301506
mc16a.nnlo_30_ggH125_bb_kt200.309450
mc16a.RS_G_hh_bbbb_c10_M2250.301504
mc16a.RS_G_hh_bbbb_c10_M1800.301502
mc16a.RS_G_hh_bbbb_c10_M1500.301500
mc16a.RS_G_hh_bbbb_c10_M1600.301501
mc16a.RS_G_hh_bbbb_c10_M2000.301503
mc16a.RS_G_hh_bbbb_c10_M1400.301499
mc16a.RS_G_hh_bbbb_c10_M1100.301496
mc16a.RS_G_hh_bbbb_c10_M1300.301498
mc16a.RS_G_hh_bbbb_c10_M1000.301495
mc16a.RS_G_hh_bbbb_c10_M1200.301497
mc16a.RS_G_hh_bbbb_c10_M500.301490
mc16a.RS_G_hh_bbbb_c10_M900.301494
mc16a.RS_G_hh_bbbb_c10_M600.301491
mc16a.RS_G_hh_bbbb_c10_M700.301492
mc16a.RS_G_hh_bbbb_c10_M800.301493
mc16a.RS_G_hh_bbbb_c10_M300.301488
mc16a.zprime4000_tt.301334
mc16a.zprime5000_tt.301335
mc16a.RS_G_hh_bbbb_c10_M400.301489
mc16a.zprime2750_tt.301332
mc16a.zprime2500_tt.301331
mc16a.zprime1500_tt.301327
mc16a.zprime1000_tt.301325
mc16a.zprime2000_tt.301329
mc16a.zprime3000_tt.301333
mc16a.zprime750_tt.301324
mc16a.zprime2250_tt.301330
mc16a.Wprime_WZqqqq_m4800.301286
mc16a.zprime500_tt.301323
mc16a.Wprime_WZqqqq_m4600.301285
mc16a.zprime1250_tt.301326
mc16a.zprime400_tt.301322
mc16a.Wprime_WZqqqq_m5000.301287
mc16a.Wprime_WZqqqq_m4200.301283
mc16a.Wprime_WZqqqq_m4400.301284
mc16a.Wprime_WZqqqq_m3200.301278
mc16a.Wprime_WZqqqq_m4000.301282
mc16a.Wprime_WZqqqq_m3400.301279
mc16a.Wprime_WZqqqq_m3600.301280
mc16a.Wprime_WZqqqq_m3000.301277
mc16a.Wprime_WZqqqq_m3800.301281
mc16a.Wprime_WZqqqq_m2900.301276
mc16a.Wprime_WZqqqq_m2800.301275
mc16a.Wprime_WZqqqq_m2600.301273
mc16a.Wprime_WZqqqq_m2300.301270
mc16a.Wprime_WZqqqq_m2400.301271
mc16a.Wprime_WZqqqq_m2100.301268
mc16a.Wprime_WZqqqq_m2200.301269
mc16a.Wprime_WZqqqq_m1600.301263
mc16a.Wprime_WZqqqq_m1900.301266
mc16a.Wprime_WZqqqq_m2000.301267
mc16a.Wprime_WZqqqq_m1700.301264
mc16a.Wprime_WZqqqq_m1800.301265
mc16a.Wprime_WZqqqq_m1500.301262
mc16a.Wprime_WZqqqq_m1400.301261
mc16a.Wprime_WZqqqq_m1300.301260
mc16a.Wprime_WZqqqq_m1200.301259
mc16a.Wprime_WZqqqq_m1100.301258
mc16a.Wprime_WZqqqq_m1000.301257
mc16a.Wprime_WZqqqq_m800.301256
mc16a.Wprime_WZqqqq_m400.301254
mc16a.Wprime_WZqqqq_m600.301255
